{
  "name"    : "markitup Demo",

  "include" :
  [
    {
      "path" : "${QOOXDOO_PATH}/tool/data/config/application.json"
    }
  ],

  "export" :
  [
    "api",
    "api-data",
    "build",
    "clean",
    "distclean",
    "fix",
    "info",
    "inspector",
    "lint",
    "migration",
    "pretty",
    "profiling",
    "source",
    "source-all",
    "source-hybrid",
    "source-server",
    "source-server-reload",
    "source-httpd-config",
    "simulation-build",
    "simulation-run",
    "test",
    "test-source",
    "translation",
    "validate-config",
    "validate-manifest",
    "watch"
  ],
  
  "default-job" : "source-hybrid",

  "let" :
  {
    "APPLICATION"  : "markitup.demo",
    "QOOXDOO_PATH" : "../../../..",
    "QXTHEME"      : "markitup.demo.theme.Theme",
    "API_EXCLUDE"  : ["qx.test.*", "${APPLICATION}.theme.*", "${APPLICATION}.test.*", "${APPLICATION}.simulation.*"],
    "LOCALES"      : [ "en" ],
    "CACHE"        : "${TMPDIR}/qx${QOOXDOO_VERSION}/cache",
    "ROOT"         : "."
  },

  "config-warnings" : 
  {
    "job-shadowing" : ["libraries"]
  },

  "jobs" :
  {
    "libraries" : 
    {
      "library" :
      [
        {
          "manifest" : "../../Manifest.json"
        }
      ]
    }
  }
}
